{
  "type": "service_account",
  "project_id": "curso-devops-2022-wgonzalesk",
  "private_key_id": "003bfb8159fea8d292d319b6ceb43597f0c32c3a",
  "private_key": "-----BEGIN PRIVATE KEY-----\nMIIEvQIBADANBgkqhkiG9w0BAQEFAASCBKcwggSjAgEAAoIBAQDRlNAzukirvZ67\ng2ZIBkuN8XGyV/ITIq+1lH4yQXMQvXRI6YXWDkwDIo1sbchE07RnALwMwrTbzaOF\nc/bWdV7yxh4ckOkPpIKFOOuQtgmpV8LlLkuEf6cl++Dz27spUZ+OG8GTvbkGj9TL\ntwpkPj7KwsoOVUqBddKgLJ1JwXGLn7mH9e5Bec3Yrr+LFTRbgEj81qqPoNUkj9Cx\nwyRi3zJgbL+BOCvGVxaJeqYSeQ3G9rGTCPkjiO9KU+qtfFiwyp09aJZpbzZX0GR/\nvTyj5OrLfGs7hbBbqzS5dt9ldM4i2RdWtMFHf7nq93jDu7yOoG/SfzABNVQUlvWv\nZ+CPHaqLAgMBAAECggEAX9TrCuwgNJ+FCHsB9uch/yqq8YCzSTqwG5hlx/cTdVEb\n7gcR0ppA+aIABteAHrCrKfo1AqS5bFRwdCJdeRy8KMicljVQzH1NzTsEw+vpKQzf\nKkpr748rT/wHlZogz7jp+2IHttWm2DBGfkwZLVMlBTPijoFDi0Tj5afg2AvjLpMr\njlTcDN9/uXCeDdG1cadhSb4ifnSZ69KrV50ZCBAulJJxa0pEco/0biuRqL8mZB7O\nAaIEbY+iX5yssPxMIBEsoGxdgQ2iFDtewlWRB66m7udTKMNTc6F+Vvzr+AHVxYuP\n9nPqoAeAeG4G7qiTu0T249nYRUqqKOz1FuSJ7Wf2SQKBgQDxqgvszFfvDU4q8lg5\nFEuVQ4XDKC8yFCs0Kc2Hk4GnjONBLNVsbC71wW9aYQwSX773lT+NXA25J+3NkDey\n6yRTkCXWeoE7xbcHV0y/udRTXuLFMIEvPCsrAKlQ+lC5WT4qS5VDtfsfb0f0loLQ\nwQH7KoP/EgpmbG8sG/ytWAXQBQKBgQDeA4y//zQp6UPutc13frFBa83hzbVGbEyY\nrzfSXO8HLSiedgv4//5LW3l9ZFimL+kOMXy5Tt/e+rV9fN60yX3BUjiPEukQyp9b\nULUBjh9DPUnQ9gHCpWqc8XTDeC/3TaW2CWPOWVTUBw5WaEp9e9MuGETlk+FwntNk\nxd3jQ6blTwKBgATcLJ04htQx6k6GzStosxRvZTNFjZ1uNmg4JwABAWyDMtbOtgQW\nMOOUXk7tALcl4ctM3xhSr5v3p5qoudYJUJO1pG0pzYuMMGAfa1W3wQNkNx9MGG0A\nwsV8n+sW/aScnNlw57GS6Vf6fvH2TO8x0n5gnoL0s+zXZWz3qx85U/SZAoGAYBtF\nSK/fEu2JnMJSqZHMhbd3LnJwMIYdOlNPZN8aEg84cDBFyop2uIRmuSNBRN+kkaJW\njZlZTBtXiXUOq1A2AgPnu/fBsKUmCs+LK5ssaV0UoUJ9TJdy6XGUzDExAms4eu7h\np6gAErDjQgBvjpaVunSDDqbPhoMam5sUDJdynf0CgYEArq0Rjr+rsFd7VzzFQVcv\nNM38Uvh+fsDCSTgMt3pltcGzr4DyO2ZSL13hMZIU0V1iCoahg4sg190L5jRWragp\nrRqbJ5zP7Q3xZtunqNcJpBk1v/MJ6w+vG+LkDWNql9pH0W1EetFex0RK1zMqUClV\ni6SOFHbWr4a+Lqa+WvVUV2w=\n-----END PRIVATE KEY-----\n",
  "client_email": "curso-devops@curso-devops-2022-wgonzalesk.iam.gserviceaccount.com",
  "client_id": "112510648848097421727",
  "auth_uri": "https://accounts.google.com/o/oauth2/auth",
  "token_uri": "https://oauth2.googleapis.com/token",
  "auth_provider_x509_cert_url": "https://www.googleapis.com/oauth2/v1/certs",
  "client_x509_cert_url": "https://www.googleapis.com/robot/v1/metadata/x509/curso-devops%40curso-devops-2022-wgonzalesk.iam.gserviceaccount.com"
}
